<?xml version="1.0" encoding="UTF-8" standalone="no"?>
<!-- Created with Inkscape (http://www.inkscape.org/) -->

<svg
   xmlns:dc="http://purl.org/dc/elements/1.1/"
   xmlns:cc="http://creativecommons.org/ns#"
   xmlns:rdf="http://www.w3.org/1999/02/22-rdf-syntax-ns#"
   xmlns:svg="http://www.w3.org/2000/svg"
   xmlns="http://www.w3.org/2000/svg"
   xmlns:sodipodi="http://sodipodi.sourceforge.net/DTD/sodipodi-0.dtd"
   xmlns:inkscape="http://www.inkscape.org/namespaces/inkscape"
   width="512"
   height="512"
   viewBox="0 0 135.46666 135.46667"
   version="1.1"
   id="svg8"
   inkscape:version="0.92.4 5da689c313, 2019-01-14"
   sodipodi:docname="cup-svc.svg"
   inkscape:export-filename="/home/rutgerb/bitmap.png"
   inkscape:export-xdpi="96.000008"
   inkscape:export-ydpi="96.000008">
  <defs
     id="defs2">
    <inkscape:perspective
       sodipodi:type="inkscape:persp3d"
       inkscape:vp_x="0 : 148.5 : 1"
       inkscape:vp_y="0 : 1000 : 0"
       inkscape:vp_z="209.99999 : 148.5 : 1"
       inkscape:persp3d-origin="105 : 99 : 1"
       id="perspective4518" />
    <clipPath
       clipPathUnits="userSpaceOnUse"
       id="clipPath4654">
      <rect
         ry="8.0849028"
         y="120.86937"
         x="103.96785"
         height="75.10273"
         width="16.169806"
         id="rect4656"
         style="opacity:1;fill:#ffffff;fill-opacity:1;stroke:none;stroke-width:6.36499977;stroke-miterlimit:4;stroke-dasharray:none;stroke-opacity:1" />
    </clipPath>
  </defs>
  <sodipodi:namedview
     id="base"
     pagecolor="#ffffff"
     bordercolor="#666666"
     borderopacity="1.0"
     inkscape:pageopacity="0.0"
     inkscape:pageshadow="2"
     inkscape:zoom="0.7"
     inkscape:cx="29.297705"
     inkscape:cy="205.78934"
     inkscape:document-units="px"
     inkscape:current-layer="layer1"
     showgrid="false"
     inkscape:window-width="1920"
     inkscape:window-height="1015"
     inkscape:window-x="1920"
     inkscape:window-y="0"
     inkscape:window-maximized="1"
     units="px" />
  <metadata
     id="metadata5">
    <rdf:RDF>
      <cc:Work
         rdf:about="">
        <dc:format>image/svg+xml</dc:format>
        <dc:type
           rdf:resource="http://purl.org/dc/dcmitype/StillImage" />
        <dc:title></dc:title>
      </cc:Work>
    </rdf:RDF>
  </metadata>
  <g
     inkscape:label="Layer 1"
     inkscape:groupmode="layer"
     id="layer1"
     transform="translate(0,-161.53329)">
    <rect
       style="opacity:1;fill:#009eff;fill-opacity:1;stroke:none;stroke-width:4.15463877;stroke-miterlimit:4;stroke-dasharray:none;stroke-opacity:1"
       id="rect4548-1-8-6"
       width="13.433061"
       height="32.797604"
       x="62.461288"
       y="169.4594"
       ry="6.7165308" />
    <rect
       style="opacity:1;fill:#0083ff;fill-opacity:1;stroke:none;stroke-width:4.15463877;stroke-miterlimit:4;stroke-dasharray:none;stroke-opacity:1"
       id="rect4548"
       width="13.433061"
       height="32.797604"
       x="56.878727"
       y="197.8084"
       ry="6.7165308" />
    <circle
       style="opacity:1;fill:none;fill-opacity:1;stroke:#000000;stroke-width:9.79097843;stroke-miterlimit:4;stroke-dasharray:none;stroke-opacity:1"
       id="path4658"
       cx="91.513519"
       cy="255.89041"
       r="13.515446" />
    <rect
       style="opacity:1;fill:#0048ff;fill-opacity:1;stroke:none;stroke-width:4.15463877;stroke-miterlimit:4;stroke-dasharray:none;stroke-opacity:1"
       id="rect4548-3"
       width="13.433061"
       height="32.797604"
       x="60.310329"
       y="195.08253"
       ry="6.7165308" />
    <rect
       style="opacity:1;fill:#000000;fill-opacity:1;stroke:none;stroke-width:3.50190663;stroke-miterlimit:4;stroke-dasharray:none;stroke-opacity:1"
       id="rect4540"
       width="54.401127"
       height="66.860336"
       x="36.125538"
       y="222.2135"
       ry="15.789895" />
    <rect
       style="opacity:1;fill:#003fff;fill-opacity:1;stroke:none;stroke-width:4.15463877;stroke-miterlimit:4;stroke-dasharray:none;stroke-opacity:1"
       id="rect4548-1-8"
       width="13.433061"
       height="32.797604"
       x="54.600975"
       y="176.43504"
       ry="6.7165308" />
    <rect
       style="opacity:1;fill:#ffffff;fill-opacity:1;stroke:none;stroke-width:4.15463877;stroke-miterlimit:4;stroke-dasharray:none;stroke-opacity:1"
       id="rect4595"
       width="9.3333607"
       height="23.028103"
       x="46.854553"
       y="231.29681"
       ry="4.6666803" />
    <rect
       style="opacity:1;fill:#ffffff;fill-opacity:1;stroke:none;stroke-width:4.15463877;stroke-miterlimit:4;stroke-dasharray:none;stroke-opacity:1"
       id="rect4595-9"
       width="10.554548"
       height="49.02195"
       x="70.311798"
       y="230.606"
       ry="5.2772741" />
    <rect
       style="opacity:1;fill:#ff0000;fill-opacity:1;stroke:none;stroke-width:6.36499977;stroke-miterlimit:4;stroke-dasharray:none;stroke-opacity:1"
       id="rect4644"
       width="51.850288"
       height="35.814117"
       x="87.530769"
       y="163.63251"
       ry="8.0848989"
       clip-path="url(#clipPath4654)"
       transform="matrix(0.65273191,0,0,0.65273191,2.4486546,151.7107)" />
    <rect
       style="opacity:1;fill:#00a9ff;fill-opacity:1;stroke:none;stroke-width:2.15825367;stroke-miterlimit:4;stroke-dasharray:none;stroke-opacity:1"
       id="rect4548-1-8-8"
       width="6.9782143"
       height="17.037716"
       x="62.548515"
       y="200.10579"
       ry="3.4891071" />
  </g>
</svg>
